…
这其实是另一种网页中常见的存储数据的格式，称为 JSON。其中方括号代表了这是一串数组，而每一个大括号包含的内容是一个元素（这里只展示了一条）。只要将这一大串内容存储到一个文件 `ep_list.json` 中，就可以丢到 R 中进行整理了。在 R 中，可以使用 `jsonlite` 包读取 JSON 文件并转换成 R 中常见的数据类型：

```r
library(jsonlite)
library(dplyr)
dat = read_json("ep_list.json", simplifyVector = TRUE)
dat %>% as_tibble() %>% select(cid, titleFormat, longTitle)
```

```
# A tibble: 979 x 3
         cid titleFormat longTitle           
       <int> <chr>       <chr>               
 1 183362119 第1话       云霄飞车杀人事件    
 2 183362192 第2话       董事长千金绑架事件  
 3 183362280 第3话       偶像密室杀人事件    
 4 183362362 第4话       大都会暗号地图事件  
 5 183362432 第5话       新干线大爆破事件    
 6 183362527 第6话       情人节杀人事件      
 7 183362614 第7话       每月一件礼物威胁事件
 8 183362677 第8话       美术馆杀人事件      
 9 183362762 第9话       天下第一夜祭杀人事件
10 183362916 第10话      足球选手恐吓事件    
# ... with 969 more rows
```
…
