…
所以，对一个数据框做上述 `map` 映射，就相当于把函数 `mean` 依次应用到它的每一列上。这里数据框 `df` 是鸢尾花数据的前 4 列数值列，因为求均值返回值是数值，所以 `map` 后缀用 `dbl`。如果你想返回值是字符向量，修改 `map` 后缀为 `chr 即可。

- 对数据框各列做归一化, 若均为正向指标：

```R
map_dfc(df, Rescale)
# 同 map_dfc(df, Rescale, type = "pos")
# 同 map_dfc(df, ~ Rescale(.x, "pos"))
#> # A tibble: 150 x 4
#> Sepal.Length Sepal.Width Petal.Length Petal.Width
#> <dbl> <dbl> <dbl> <dbl>
#> 1 0.222 0.625 0.0678 0.0417
#> 2 0.167 0.417 0.0678 0.0417
#> 3 0.111 0.5 0.0508 0.0417
#> 4 0.0833 0.458 0.0847 0.0417
#> 5 0.194 0.667 0.0678 0.0417
#> # ... with 145 more rows
```

将前文定义过的归一化函数，依次应用到数据框 `df` 的每一列就可以了。

`Rescale()` 函数默认是正向指标，如果想写其它参数，有两种写法：(1) 作为 `map_*()` 的 `...` 参数（传递 `.f` 的其它参数）；（2）`purrr` 公式写法，将 `.f` 写完整。

如果想对各列按不同正负方向，比如分别为正向，负向，负向，正向，做归一化。这相当于是同时在两个序列上迭代，第 1 个序列数据框（ 1 至 4 列），第 2 个序列是指定它们正向、负向的字符向量，这就适合用 `map2` 来写：

```R
type = c("pos", "neg", "neg", "pos")
map2_dfc(df, type, Rescale)
#> # A tibble: 150 x 4
#> Sepal.Length Sepal.Width Petal.Length Petal.Width
#> <dbl> <dbl> <dbl> <dbl>
#> 1 0.222 0.375 0.932 0.0417
#> 2 0.167 0.583 0.932 0.0417
#> 3 0.111 0.5 0.949 0.0417
#> 4 0.0833 0.542 0.915 0.0417
#> 5 0.194 0.333 0.932 0.0417
#> # ... with 145 more rows
```
…
这里的数据框是指 `tibble`, 支持列表列（嵌套数据框）；记住：**每次至少操作一列数据！**

#### 例4 操作数据框

- 操作一列（计算一个新列）

```R
df = as_tibble(iris) %>%                   # 准备数据
  set_names(str_c("x",1:4), "Species")     # 缩短列名

df %>%
  mutate(x1 = x1 * 10)
#> # A tibble: 150 x 5
#> x1 x2 x3 x4 Species
#> <dbl> <dbl> <dbl> <dbl> <fct>
#> 1 51 3.5 1.4 0.2 setosa
#> 2 49 3 1.4 0.2 setosa
#> 3 47 3.2 1.3 0.2 setosa
#> 4 46 3.1 1.5 0.2 setosa
#> 5 50 3.6 1.4 0.2 setosa
#> # ... with 145 more rows
```

`x1` 是数据框的 1 列，1 个向量，向量化计算乘以 10，赋给同列名，效果是替换旧列。

```R
df %>%
  mutate(avg = pmap_dbl(.[1:4], ~ mean(c(...))))
#> # A tibble: 150 x 6
#> x1 x2 x3 x4 Species avg
#> <dbl> <dbl> <dbl> <dbl> <fct> <dbl>
#> 1 5.1 3.5 1.4 0.2 setosa 2.55
#> 2 4.9 3 1.4 0.2 setosa 2.38
#> 3 4.7 3.2 1.3 0.2 setosa 2.35
#> 4 4.6 3.1 1.5 0.2 setosa 2.35
#> 5 5 3.6 1.4 0.2 setosa 2.55
#> # ... with 145 more rows
```

前文用 `pmap` 计算过数据框的行平均，得到向量，现在赋值给一个新列 `avg`。

这就是向量化思维，用到了数据框里的思维。

- 同时操作多列

```R
df %>%
  mutate(across(1:4, ~ .x * 10))
#> # A tibble: 150 x 5
#> x1 x2 x3 x4 Species
#> <dbl> <dbl> <dbl> <dbl> <fct>
#> 1 51 35 14 2 setosa
#> 2 49 30 14 2 setosa
#> 3 47 32 13 2 setosa
#> 4 46 31 15 2 setosa
#> 5 50 36 14 2 setosa
#> # ... with 145 more rows
```

这里就需要借助这个 `across` 函数（后面单独再讲）。`across` 函数先选择你要操作的列，之后再写你要对每一列应用的函数就可以了，结果是将数据框 `df` 的 1 至 4 列，同时乘以 10 .

再比如，将前文定义的归一化函数，应用到数据框的 1 至 4 列：

```R
df %>%
  mutate(across(1:4, Rescale))
#> # A tibble: 150 x 5
#> x1 x2 x3 x4 Species
#> <dbl> <dbl> <dbl> <dbl> <fct>
#> 1 0.222 0.625 0.0678 0.0417 setosa
#> 2 0.167 0.417 0.0678 0.0417 setosa
#> 3 0.111 0.5 0.0508 0.0417 setosa
#> 4 0.0833 0.458 0.0847 0.0417 setosa
#> 5 0.194 0.667 0.0678 0.0417 setosa
#> # ... with 145 more rows
```
…
**分组修改**：想对数据框进行分组，分别对每组数据做操作，整体来想这是不容易想透的复杂事情，实际上只需做 `group_by()` 分组，然后把你要对一组数据做的操作实现

- `group_by + summarise`: 分组汇总，结果是“有几个分组就有几个样本”
- `group_by + mutate`: 分组修改，结果是“原来几个样本还是几个样本”

**同时操作多列**：`across()` 同时操作多列，实际上你只需把对一列要做的操作实现

这些就是数据分解的操作思维，这些函数会帮你**分解+ 分别操作+ 合并结果**，你只需要关心**分别操作**的部分，它就是一件简单的事情。

#### 例6 分组修改数据

```R
load("datas/stocks.rda")
stocks
#> # A tibble: 753 x 3
#> Date Stock Close
#> <date> <chr> <dbl>
#> 1 2017-01-03 Google 786.
#> 2 2017-01-03 Amazon 754.
#> 3 2017-01-03 Apple 116.
#> 4 2017-01-04 Google 787.
#> 5 2017-01-04 Amazon 757.
#> # ... with 748 more rows
```

**问题：**分别计算每支股票的收盘价与前一天的差价。

该股票的数据，相当于是面板数据，包含三支股票，在这里想算每支股票的收盘价与前一天的差价。大家普遍能想到的方法是，根据股票把数据框分割成 3 个子数据框，然后循环迭代分别计算，再把结果合并回来。

但是用数据分解的思维，你只需要对 `Stock` 分组，之后再把对一组（一支股票的）数据，怎么计算收盘价与前一天的差价的代码，写出来即可：

```R
stocks %>%
  group_by(Stock) %>%
  mutate(delta = Close - lag(Close))
#> # A tibble: 753 x 4
#> # Groups: Stock [3]
#> Date Stock Close delta
#> <date> <chr> <dbl> <dbl>
#> 1 2017-01-03 Google 786. NA
#> 2 2017-01-03 Amazon 754. NA
#> 3 2017-01-03 Apple 116. NA
#> 4 2017-01-04 Google 787. 0.760
#> 5 2017-01-04 Amazon 757. 3.51
#> # ... with 748 more rows
```
…
<center><b>图6</b> across 函数作用机制示意图</center>

`across` 函数专门用来同时操作多列，其操作逻辑就是：先把要同时操作的多列选出来，支持各种 `dplyr` 选择列语法，之后是要对每一列应用的函数 `f`，你只需要把对一列做的操作写清楚就可以了，剩下的就交给 `across` 函数，它会帮你一次把 `f` 应用到选择的各列上，之后再替换[^b]为新列（你选择了几列，那就会对应生成几个新列）。所以，这个 `f`  的输入参数是一个向量，它的返回值也是一个长度一样的向量。

[^b]: 设置列名参数，若要保留旧列，可设置 `.names` 参数.

再回头看一下，刚才的例子：

```R
df %>%
  mutate(across(1:4, Rescale))
#> # A tibble: 150 x 5
#> x1 x2 x3 x4 Species
#> <dbl> <dbl> <dbl> <dbl> <fct>
#> 1 0.222 0.625 0.0678 0.0417 setosa
#> 2 0.167 0.417 0.0678 0.0417 setosa
#> 3 0.111 0.5 0.0508 0.0417 setosa
#> 4 0.0833 0.458 0.0847 0.0417 setosa
#> 5 0.194 0.667 0.0678 0.0417 setosa
#> # ... with 145 more rows
```
…
